Midterm Exam
…
ruleResults <- apriori2df(rules2) %>% 
                  mutate(addedValue = interestMeasure(rules2, measure="addedValue", trans), 
                  PS = interestMeasure(rules2, measure="leverage", trans)) %>% 
                  arrange(-confidence) #sort by confidence (the conditional probability of the RHS)

ruleResults

#> # A tibble: 507 x 8
#>    lhs           rhs      support confidence  lift count addedValue      PS
#>    <chr>         <chr>      <dbl>      <dbl> <dbl> <int>      <dbl>   <dbl>
#>  1 {HUMAN TORCH {RICHAR 0.0142       0.310 14.7    182    0.289   1.32e-2
#>  2 {HUMAN TORCH {MASTER 0.00988      0.216 13.4    127    0.200   9.15e-3
#>  3 {HUMAN TORCH {CAPTAI 0.00763      0.167  1.58    98    0.0614  2.81e-3
#>  4 {HUMAN TORCH {IRON M 0.00716      0.156  1.72    92    0.0656  3.00e-3
#>  5 {HUMAN TORCH {CRYSTA 0.00677      0.148  7.26    87    0.128   5.84e-3
#>  6 {HUMAN TORCH {THOR}   0.00646      0.141  1.88    83    0.0661  3.02e-3
#>  7 {HUMAN TORCH {DR. DO 0.00638      0.139  6.64    82    0.118   5.42e-3
#>  8 {HUMAN TORCH {SPIDER 0.00607      0.133  1.05    78    0.00618 2.83e-4
#>  9 {HUMAN TORCH {SUB-MA 0.00506      0.111  2.66    65    0.0690  3.16e-3
#> 10 {HUMAN TORCH {VISION} 0.00483      0.105  2.24    62    0.0584  2.67e-3
#> #  with 497 more rows
…
